{
  "UsersTickets": [
    {
      "movieId": "Elisa6",
      "userId": "Kleber.Costa50@exemplo.qa.com.br",
      "seatNumber": 28,
      "price": 13,
      "showtime": "2023-11-27T19:18:46.902Z"
    },
    {
      "movieId": "Miguel_Barros30",
      "userId": "Matheus_Santos97@exemplo.qa.com.br",
      "seatNumber": 62,
      "price": 18,
      "showtime": "2023-11-27T19:18:46.902Z"
    },
    {
      "movieId": "Nubia.Saraiva76",
      "userId": "Isis.Souza@exemplo.qa.com.br",
      "seatNumber": 91,
      "price": 18,
      "showtime": "2023-11-27T19:18:46.902Z"
    },
    {
      "movieId": "Larissa59",
      "userId": "Yago_Pereira52@exemplo.qa.com.br",
      "seatNumber": 72,
      "price": 10,
      "showtime": "2023-11-27T19:18:46.902Z"
    },
    {
      "movieId": "Eduarda_Pereira87",
      "userId": "Isadora42@exemplo.qa.com.br",
      "seatNumber": 13,
      "price": 47,
      "showtime": "2023-11-27T19:18:46.902Z"
    }
  ]
}